{
  "version": "1",
  "title": "aveonlineshipping",
  "description": "Shipping methods default script",
  "configurationUi": true,
  "configuration": {
    "type": "single",
    "schema": [

    ]
  }
}